<?xml version="1.0" encoding="utf-8"?>
<!-- Generator: Adobe Illustrator 19.0.0, SVG Export Plug-In . SVG Version: 6.00 Build 0)  -->
<svg version="1.1" id="Layer_1" xmlns="http://www.w3.org/2000/svg" xmlns:xlink="http://www.w3.org/1999/xlink" x="0px" y="0px"
	 viewBox="0 0 282 215.7" style="enable-background:new 0 0 282 215.7;" xml:space="preserve">
<path d="M132.2,44.9c-2.6,4.7-9.3,4.2-12.7,0c-0.3-0.4-0.7-0.9-1-1.4c-4-6.1,2.4-17.8,8.2-21.3c12.5-7.6,24.7-8,37.5-0.4
	c13.7,8.1,14.7,31.3,2.5,43.8c-2.7,2.8-6.2,4.8-9,7.4c-2.4,2.3-4.4,5-6.8,7.8c14.5,10.6,28.4,20.6,42.2,30.7
	c23.2,16.9,46.4,33.7,69.6,50.6c2.8,2,5.5,4.2,7.9,6.6c5.1,5.1,8.3,11,5.5,18.5c-2.8,7.4-9.1,9.8-16.1,10.8
	c-2.9,0.4-5.9,0.4-8.8,0.4c-73.7,0-147.4,0.1-221.1-0.1c-5.3,0-10.9-0.6-15.8-2.3C4.3,192.5,1,182.1,7,173.3
	c2.7-3.9,6.4-7.4,10.3-10.3c36.9-27.1,74-54,111-80.9c2.9-2.1,4.4-4.3,5.4-8c1.1-4.3,4-8.4,6.9-11.9c3.6-4.2,8.5-7.2,11.9-11.5
	c1.8-2.1,2.9-6,2.3-8.7c-0.9-3.9-4.7-6.5-9.7-6.2C139,36.3,135.4,39.1,132.2,44.9z M30.2,178.4c73.9,0,146.5,0,220.4,0
	c-37.4-27.2-73.8-53.7-110.2-80.2C103.8,124.8,67.5,151.2,30.2,178.4z"/>
</svg>
