<?xml version="1.0" encoding="utf-8"?>
<!-- Generator: Adobe Illustrator 19.0.0, SVG Export Plug-In . SVG Version: 6.00 Build 0)  -->
<svg version="1.1" id="Layer_1" xmlns="http://www.w3.org/2000/svg" xmlns:xlink="http://www.w3.org/1999/xlink" x="0px" y="0px"
	 viewBox="0 0 282 215.7" style="enable-background:new 0 0 282 215.7;" xml:space="preserve">
<style type="text/css">
	.st0{fill:#181919;}
</style>
<g>
	<path class="st0" d="M114.2,214c-20.4,0-39.8,0-59.3,0c-2.7-3.4-1.6-7.3-1.6-10.9c-0.1-27.5,0.3-55.1-0.1-82.6
		c-0.1-5.7,1.6-9.6,5.6-12.9c26.8-22.3,53.6-44.5,81.1-67.4c16,13.8,65,55.3,78,66.9c3.7,3.3,7,6.5,6.9,12.5
		c-0.4,29.7-0.3,59.2-0.4,88.9c0,1.2-0.4,2.5-0.9,4.9c-19.6,0-39.3,0-60.1,0c0-14.4,0-28.9,0-43.3c0-11.2-1.6-12.7-13-12.8
		c-7.9-0.1-15.8-0.5-23.7-0.3c-9.6,0.3-12.4,3.3-12.5,13C114.1,184.3,114.2,198.8,114.2,214z"/>
	<path class="st0" d="M260,108.9c-7.7,4.3-13.6,1.8-18.8-2.5c-10.2-8.4-70.4-62-90.3-80.2c-7.4-6.7-9-6.6-16.7-0.2
		c-27.1,22.5-92.5,78.5-99.4,82.7c-4.7,2.9-8.9,4-14.4-0.2C61.1,72.8,101.5,37.4,142.2,1.7C181.8,37.9,220.6,73.2,260,108.9z"/>
	<path class="st0" d="M215.3,26.2c4.8,0,10.8,0,16.6,0c-0.1,16,0,35.7,0,49.6c-15.5-13.5-16.6-12.7-16.6-18.6
		C215.3,51.7,215.3,35.1,215.3,26.2z"/>
	<path class="st0" d="M215.3,55.2"/>
</g>
</svg>
