<?xml version="1.0" encoding="utf-8"?>
<!-- Generator: Adobe Illustrator 19.0.0, SVG Export Plug-In . SVG Version: 6.00 Build 0)  -->
<svg version="1.1" id="Layer_1" xmlns="http://www.w3.org/2000/svg" xmlns:xlink="http://www.w3.org/1999/xlink" x="0px" y="0px"
	 viewBox="0 0 282 215.7" style="enable-background:new 0 0 282 215.7;" xml:space="preserve">
<style type="text/css">
	.st0{fill:#181919;}
</style>
<path class="st0" d="M193.9,36.1l-16.3-16.3c-1-1-2.7-1-3.7,0l-82,82c-3.3,3.3-3.3,8.7,0,12.2l82,82c1,1,2.7,1,3.7,0l16.3-16.3
	c1-1,1-2.7,0-3.7l-66.1-66.1c-1-1-1-2.7,0-3.7L194,39.9C194.9,38.8,194.9,37.2,193.9,36.1z"/>
</svg>
