<?xml version="1.0" encoding="utf-8"?>
<!-- Generator: Adobe Illustrator 19.0.0, SVG Export Plug-In . SVG Version: 6.00 Build 0)  -->
<svg version="1.1" id="Layer_1" xmlns="http://www.w3.org/2000/svg" xmlns:xlink="http://www.w3.org/1999/xlink" x="0px" y="0px"
	 viewBox="0 0 52 52" style="enable-background:new 0 0 52 52;" xml:space="preserve">
<style type="text/css">
	.st0{fill:none;stroke:#000000;stroke-miterlimit:10;}
	.st1{fill:none;stroke:#000000;stroke-linecap:round;stroke-miterlimit:10;}
</style>
<path id="XMLID_17_" d="M26,0C11.7,0,0,11.7,0,26c0,14.3,11.7,26,26,26c14.3,0,26-11.7,26-26C52,11.7,40.3,0,26,0z M26,51
	C12.2,51,1,39.8,1,26S12.2,1,26,1c13.8,0,25,11.2,25,25S39.8,51,26,51z"/>
<g id="XMLID_25_">
	<circle id="XMLID_13_" class="st0" cx="17.9" cy="17.7" r="0.8"/>
	<circle id="XMLID_14_" class="st0" cx="23.2" cy="17" r="1.4"/>
	<circle id="XMLID_21_" class="st0" cx="32.4" cy="15.3" r="1.5"/>
	<circle id="XMLID_22_" class="st0" cx="35.5" cy="24.2" r="1.6"/>
	<circle id="XMLID_23_" cx="36.5" cy="32" r="0.6"/>
	<path id="XMLID_38_" d="M35.6,35.2c-0.7,0-1.3-0.6-1.3-1.3c0,0.7-0.6,1.3-1.3,1.3c0.7,0,1.3,0.6,1.3,1.3
		C34.3,35.8,34.9,35.2,35.6,35.2z"/>
	<path id="XMLID_24_" d="M30.4,22.3c-0.5,0-1-0.4-1-1c0,0.5-0.4,1-1,1c0.5,0,1,0.4,1,1C29.4,22.7,29.9,22.3,30.4,22.3z"/>
	<path id="XMLID_30_" class="st1" d="M27.2,13.3c0,0,1,6.2-2.9,10"/>
	<path id="XMLID_31_" class="st1" d="M31.6,21.3c0,0,3-2.6,6.9-2.1"/>
	<path id="XMLID_32_" class="st1" d="M29.4,27.6c0,0,3.8-1,5.6,1"/>
	
		<ellipse id="XMLID_33_" transform="matrix(0.7071 0.7071 -0.7071 0.7071 26.0734 -10.9347)" class="st1" cx="26.2" cy="26" rx="7.1" ry="1.8"/>
	<path id="XMLID_35_" class="st1" d="M21.2,21l-7.7,17.1c-0.2,0.3,0.2,0.7,0.5,0.5L31.2,31"/>
	<path id="XMLID_36_" class="st1" d="M16.3,32.6c0,0,1.4,0.4,0.8,4.8"/>
	<path id="XMLID_37_" class="st1" d="M18.1,27.9c0,0,3.1,0.8,2.2,8"/>
	<path id="XMLID_39_" class="st1" d="M19.6,24.6c0,0,3.9,2.2,3.9,9.9"/>
	<path id="XMLID_40_" class="st1" d="M25.5,27.7c0,0,1.3,2,0.9,5.5"/>
</g>
</svg>
